EESchema Schematic File Version 4
EELAYER 30 0
EELAYER END
$Descr A4 11693 8268
encoding utf-8
Sheet 1 1
Title ""
Date ""
Rev ""
Comp ""
Comment1 ""
Comment2 ""
Comment3 ""
Comment4 ""
$EndDescr
$Comp
L ESP32Cam_PIR-rescue:ESP32-CAM-electroniccats U1
U 1 1 5D4857DC
P 4900 2850
F 0 "U1" H 4900 3365 50  0000 C CNN
F 1 "ESP32-CAM" H 4900 3274 50  0000 C CNN
F 2 "3615_footprints:ESP32CAM" H 4900 2850 50  0001 C CNN
F 3 "" H 4900 2850 50  0001 C CNN
	1    4900 2850
	1    0    0    -1  
$EndComp
Wire Wire Line
	4450 2700 4150 2700
Wire Wire Line
	4150 3100 4450 3100
Wire Wire Line
	3350 2700 3950 2700
Wire Wire Line
	3950 2700 3950 2800
Wire Wire Line
	3950 2800 4450 2800
Wire Wire Line
	4450 2900 4350 2900
Wire Wire Line
	4350 2900 4350 2850
Wire Wire Line
	4350 2850 3850 2850
Wire Wire Line
	3850 2850 3850 2800
Wire Wire Line
	3850 2800 3350 2800
Wire Wire Line
	4450 3200 3550 3200
Wire Wire Line
	4150 2100 4150 2700
Connection ~ 4150 2700
$Comp
L power:GND #PWR0104
U 1 1 5D49DD45
P 4150 2100
F 0 "#PWR0104" H 4150 1850 50  0001 C CNN
F 1 "GND" H 4155 1927 50  0000 C CNN
F 2 "" H 4150 2100 50  0001 C CNN
F 3 "" H 4150 2100 50  0001 C CNN
	1    4150 2100
	-1   0    0    1   
$EndComp
$Comp
L power:GND #PWR0106
U 1 1 5D49DDD2
P 5700 5650
F 0 "#PWR0106" H 5700 5400 50  0001 C CNN
F 1 "GND" H 5705 5477 50  0000 C CNN
F 2 "" H 5700 5650 50  0001 C CNN
F 3 "" H 5700 5650 50  0001 C CNN
	1    5700 5650
	1    0    0    -1  
$EndComp
$Comp
L power:GND #PWR0107
U 1 1 5D49DE0E
P 6350 3100
F 0 "#PWR0107" H 6350 2850 50  0001 C CNN
F 1 "GND" H 6355 2927 50  0000 C CNN
F 2 "" H 6350 3100 50  0001 C CNN
F 3 "" H 6350 3100 50  0001 C CNN
	1    6350 3100
	-1   0    0    1   
$EndComp
$Comp
L power:+5V #PWR0109
U 1 1 5D49DEC9
P 5300 5650
F 0 "#PWR0109" H 5300 5500 50  0001 C CNN
F 1 "+5V" H 5315 5823 50  0000 C CNN
F 2 "" H 5300 5650 50  0001 C CNN
F 3 "" H 5300 5650 50  0001 C CNN
	1    5300 5650
	-1   0    0    1   
$EndComp
$Comp
L power:+3.3V #PWR0111
U 1 1 5D4ADEAF
P 4400 3400
F 0 "#PWR0111" H 4400 3250 50  0001 C CNN
F 1 "+3.3V" H 4415 3573 50  0000 C CNN
F 2 "" H 4400 3400 50  0001 C CNN
F 3 "" H 4400 3400 50  0001 C CNN
	1    4400 3400
	-1   0    0    1   
$EndComp
Wire Wire Line
	6050 3950 6450 3950
Wire Wire Line
	6350 3600 6350 3850
Wire Wire Line
	6350 3850 6450 3850
$Comp
L Device:C C1
U 1 1 5D4BB9C3
P 5700 4000
F 0 "C1" H 5815 4046 50  0000 L CNN
F 1 "0.1uF" H 5815 3955 50  0000 L CNN
F 2 "Capacitor_THT:C_Disc_D4.3mm_W1.9mm_P5.00mm" H 5738 3850 50  0001 C CNN
F 3 "~" H 5700 4000 50  0001 C CNN
	1    5700 4000
	-1   0    0    1   
$EndComp
Wire Wire Line
	4400 3400 4450 3400
$Comp
L Device:C C3
U 1 1 5F9CCC6D
P 6200 3600
F 0 "C3" H 6315 3646 50  0000 L CNN
F 1 "C" H 6315 3555 50  0000 L CNN
F 2 "Capacitor_THT:C_Disc_D4.3mm_W1.9mm_P5.00mm" H 6238 3450 50  0001 C CNN
F 3 "~" H 6200 3600 50  0001 C CNN
	1    6200 3600
	0    1    1    0   
$EndComp
Wire Wire Line
	6050 3600 6050 3950
Wire Wire Line
	5350 3100 6050 3100
NoConn ~ 4450 3000
NoConn ~ 4450 3300
NoConn ~ 5350 2800
NoConn ~ 5350 2900
NoConn ~ 5350 3000
NoConn ~ 5350 3200
Connection ~ 6050 3600
Wire Wire Line
	6050 3100 6050 3600
Wire Wire Line
	6350 3100 6350 3300
Connection ~ 6350 3600
$Comp
L Connector:Conn_01x03_Male J2
U 1 1 5F9D4927
P 3150 2800
F 0 "J2" H 3256 3078 50  0000 C CNN
F 1 "Conn_01x03_PROG" H 3256 2987 50  0000 C CNN
F 2 "Connector_PinHeader_2.54mm:PinHeader_1x03_P2.54mm_Vertical" H 3150 2800 50  0001 C CNN
F 3 "~" H 3150 2800 50  0001 C CNN
	1    3150 2800
	1    0    0    -1  
$EndComp
Wire Wire Line
	3350 2900 4150 2900
Connection ~ 4150 3100
Wire Wire Line
	3550 3200 3550 3700
Wire Wire Line
	3550 3700 2900 3700
Wire Wire Line
	2900 3100 4150 3100
$Comp
L ESP32Cam_PIR-rescue:SWITCH_Lateral_1Ligne-3615_KicadLibrary U2
U 1 1 5F9D5E50
P 4600 4650
F 0 "U2" H 4456 4737 60  0000 C CNN
F 1 "SWITCH_Lateral_1Ligne" H 4456 4631 60  0000 C CNN
F 2 "Button_Switch_THT:SW_Slide_1P2T_CK_OS102011MS2Q" H 4600 4650 60  0001 C CNN
F 3 "" H 4600 4650 60  0001 C CNN
	1    4600 4650
	1    0    0    -1  
$EndComp
NoConn ~ 4700 5150
$Comp
L ESP32Cam_PIR-rescue:SW_DIP_x1-3615_KicadLibrary S2
U 1 1 5F9D7373
P 2900 3400
F 0 "S2" V 2854 3488 50  0000 L CNN
F 1 "SW_DIP_x1" V 2945 3488 50  0000 L CNN
F 2 "Button_Switch_THT:SW_PUSH_6mm_H5mm" H 2850 3400 50  0001 C CNN
F 3 "" H 2850 3400 50  0000 C CNN
	1    2900 3400
	0    1    1    0   
$EndComp
Wire Wire Line
	5300 5000 5300 5650
$Comp
L Device:C C2
U 1 1 5F9B15B8
P 5200 4000
F 0 "C2" H 5315 4046 50  0000 L CNN
F 1 "10uF" H 5315 3955 50  0000 L CNN
F 2 "Capacitor_THT:C_Disc_D4.3mm_W1.9mm_P5.00mm" H 5238 3850 50  0001 C CNN
F 3 "~" H 5200 4000 50  0001 C CNN
	1    5200 4000
	-1   0    0    1   
$EndComp
Connection ~ 5700 4150
Wire Wire Line
	5700 4150 5700 5650
Wire Wire Line
	5700 3850 5700 3400
Connection ~ 5700 3850
Wire Wire Line
	5700 3400 5900 3400
Wire Wire Line
	5900 3400 5900 4050
Wire Wire Line
	5900 4050 6450 4050
Connection ~ 5700 3400
Wire Wire Line
	5350 3300 6350 3300
Connection ~ 6350 3300
Wire Wire Line
	6350 3300 6350 3600
Wire Wire Line
	4700 5000 5300 5000
Wire Wire Line
	4800 3850 5200 3850
Wire Wire Line
	4800 3850 4800 4850
Wire Wire Line
	4800 4850 4700 4850
Wire Wire Line
	5350 3400 5700 3400
Wire Wire Line
	5200 3850 5700 3850
Connection ~ 5200 3850
Wire Wire Line
	5200 4150 5700 4150
Connection ~ 4150 2900
Wire Wire Line
	4150 2900 4150 3100
Wire Wire Line
	4150 2700 4150 2900
$Comp
L ESP32Cam_PIR-rescue:Conn_01x02-3615_KicadLibrary J5
U 1 1 5F9C9682
P 6350 1700
F 0 "J5" H 6430 1692 50  0000 L CNN
F 1 "Conn_01x02_LEDS" H 6430 1601 50  0000 L CNN
F 2 "Connector_PinHeader_2.54mm:PinHeader_1x02_P2.54mm_Vertical" H 6350 1700 50  0001 C CNN
F 3 "" H 6350 1700 50  0001 C CNN
	1    6350 1700
	0    -1   -1   0   
$EndComp
$Comp
L Regulator_Linear:L7805 U3
U 1 1 5F9C2FC9
P 8700 3200
F 0 "U3" H 8700 3442 50  0000 C CNN
F 1 "L7805" H 8700 3351 50  0000 C CNN
F 2 "Package_TO_SOT_THT:TO-220-3_Vertical" H 8725 3050 50  0001 L CIN
F 3 "http://www.st.com/content/ccc/resource/technical/document/datasheet/41/4f/b3/b0/12/d4/47/88/CD00000444.pdf/files/CD00000444.pdf/jcr:content/translations/en.CD00000444.pdf" H 8700 3150 50  0001 C CNN
	1    8700 3200
	1    0    0    -1  
$EndComp
$Comp
L power:+5V #PWR0101
U 1 1 5F9C30DE
P 9000 3200
F 0 "#PWR0101" H 9000 3050 50  0001 C CNN
F 1 "+5V" H 9015 3373 50  0000 C CNN
F 2 "" H 9000 3200 50  0001 C CNN
F 3 "" H 9000 3200 50  0001 C CNN
	1    9000 3200
	-1   0    0    1   
$EndComp
$Comp
L power:+12V #PWR0102
U 1 1 5F9C3119
P 8400 3200
F 0 "#PWR0102" H 8400 3050 50  0001 C CNN
F 1 "+12V" H 8415 3373 50  0000 C CNN
F 2 "" H 8400 3200 50  0001 C CNN
F 3 "" H 8400 3200 50  0001 C CNN
	1    8400 3200
	-1   0    0    1   
$EndComp
$Comp
L power:GND #PWR0103
U 1 1 5F9C315F
P 8700 3500
F 0 "#PWR0103" H 8700 3250 50  0001 C CNN
F 1 "GND" H 8705 3327 50  0000 C CNN
F 2 "" H 8700 3500 50  0001 C CNN
F 3 "" H 8700 3500 50  0001 C CNN
	1    8700 3500
	1    0    0    -1  
$EndComp
$Comp
L ESP32Cam_PIR-rescue:Conn_01x02-3615_KicadLibrary J1
U 1 1 5F9C3AED
P 8650 2550
F 0 "J1" H 8730 2542 50  0000 L CNN
F 1 "Conn_01x02_Batt12V" H 8730 2451 50  0000 L CNN
F 2 "Connector_PinHeader_2.54mm:PinHeader_1x02_P2.54mm_Vertical" H 8650 2550 50  0001 C CNN
F 3 "" H 8650 2550 50  0001 C CNN
	1    8650 2550
	1    0    0    -1  
$EndComp
$Comp
L power:+12V #PWR0105
U 1 1 5F9C3D6D
P 8450 2550
F 0 "#PWR0105" H 8450 2400 50  0001 C CNN
F 1 "+12V" V 8465 2678 50  0000 L CNN
F 2 "" H 8450 2550 50  0001 C CNN
F 3 "" H 8450 2550 50  0001 C CNN
	1    8450 2550
	0    -1   -1   0   
$EndComp
$Comp
L power:GND #PWR0108
U 1 1 5F9C3E12
P 8450 2650
F 0 "#PWR0108" H 8450 2400 50  0001 C CNN
F 1 "GND" H 8455 2477 50  0000 C CNN
F 2 "" H 8450 2650 50  0001 C CNN
F 3 "" H 8450 2650 50  0001 C CNN
	1    8450 2650
	1    0    0    -1  
$EndComp
$Comp
L Connector_Generic:Conn_01x03 J3
U 1 1 5F9C7265
P 6650 3950
F 0 "J3" H 6730 3992 50  0000 L CNN
F 1 "Conn_01x3_PIR" H 6730 3901 50  0000 L CNN
F 2 "Connector_PinHeader_2.54mm:PinHeader_1x03_P2.54mm_Vertical" H 6650 3950 50  0001 C CNN
F 3 "~" H 6650 3950 50  0001 C CNN
	1    6650 3950
	1    0    0    -1  
$EndComp
$Comp
L Transistor_BJT:TIP120 Q1
U 1 1 5F9C7560
P 6250 2350
F 0 "Q1" H 6457 2396 50  0000 L CNN
F 1 "TIP120" H 6457 2305 50  0000 L CNN
F 2 "Package_TO_SOT_THT:TO-220-3_Vertical" H 6450 2275 50  0001 L CIN
F 3 "http://www.fairchildsemi.com/ds/TI/TIP120.pdf" H 6250 2350 50  0001 L CNN
	1    6250 2350
	1    0    0    -1  
$EndComp
$Comp
L Device:R R1
U 1 1 5F9C7665
P 5900 2350
F 0 "R1" V 5693 2350 50  0000 C CNN
F 1 "10K" V 5784 2350 50  0000 C CNN
F 2 "Resistor_THT:R_Axial_DIN0309_L9.0mm_D3.2mm_P2.54mm_Vertical" V 5830 2350 50  0001 C CNN
F 3 "~" H 5900 2350 50  0001 C CNN
	1    5900 2350
	0    1    1    0   
$EndComp
Wire Wire Line
	5350 2700 5650 2700
Wire Wire Line
	5650 2700 5650 2350
$Comp
L power:+12V #PWR0110
U 1 1 5F9CAB98
P 6450 1900
F 0 "#PWR0110" H 6450 1750 50  0001 C CNN
F 1 "+12V" V 6465 2028 50  0000 L CNN
F 2 "" H 6450 1900 50  0001 C CNN
F 3 "" H 6450 1900 50  0001 C CNN
	1    6450 1900
	0    1    1    0   
$EndComp
$Comp
L power:GND #PWR0112
U 1 1 5F9CAC60
P 6350 2600
F 0 "#PWR0112" H 6350 2350 50  0001 C CNN
F 1 "GND" H 6355 2427 50  0000 C CNN
F 2 "" H 6350 2600 50  0001 C CNN
F 3 "" H 6350 2600 50  0001 C CNN
	1    6350 2600
	1    0    0    -1  
$EndComp
Wire Wire Line
	6350 2550 6350 2600
Wire Wire Line
	5750 2350 5650 2350
$Comp
L Mechanical:MountingHole H1
U 1 1 5F9D8605
P 2550 1550
F 0 "H1" H 2650 1596 50  0000 L CNN
F 1 "MountingHole" H 2650 1505 50  0000 L CNN
F 2 "MountingHole:MountingHole_3mm" H 2550 1550 50  0001 C CNN
F 3 "~" H 2550 1550 50  0001 C CNN
	1    2550 1550
	1    0    0    -1  
$EndComp
$Comp
L Mechanical:MountingHole H2
U 1 1 5F9D92CB
P 2550 1800
F 0 "H2" H 2650 1846 50  0000 L CNN
F 1 "MountingHole" H 2650 1755 50  0000 L CNN
F 2 "MountingHole:MountingHole_3mm" H 2550 1800 50  0001 C CNN
F 3 "~" H 2550 1800 50  0001 C CNN
	1    2550 1800
	1    0    0    -1  
$EndComp
$Comp
L Mechanical:MountingHole H3
U 1 1 5F9D97B8
P 2550 2050
F 0 "H3" H 2650 2096 50  0000 L CNN
F 1 "MountingHole" H 2650 2005 50  0000 L CNN
F 2 "MountingHole:MountingHole_3mm" H 2550 2050 50  0001 C CNN
F 3 "~" H 2550 2050 50  0001 C CNN
	1    2550 2050
	1    0    0    -1  
$EndComp
$Comp
L Mechanical:MountingHole H4
U 1 1 5F9D9C3C
P 2550 2300
F 0 "H4" H 2650 2346 50  0000 L CNN
F 1 "MountingHole" H 2650 2255 50  0000 L CNN
F 2 "MountingHole:MountingHole_3mm" H 2550 2300 50  0001 C CNN
F 3 "~" H 2550 2300 50  0001 C CNN
	1    2550 2300
	1    0    0    -1  
$EndComp
$Comp
L ESP32Cam_PIR-rescue:Conn_01x02-3615_KicadLibrary J6
U 1 1 5FA13C8D
P 5950 1700
F 0 "J6" H 6030 1692 50  0000 L CNN
F 1 "Conn_01x02_LEDS" H 6030 1601 50  0000 L CNN
F 2 "Connector_PinHeader_2.54mm:PinHeader_1x02_P2.54mm_Vertical" H 5950 1700 50  0001 C CNN
F 3 "" H 5950 1700 50  0001 C CNN
	1    5950 1700
	0    -1   -1   0   
$EndComp
$Comp
L power:+5V #PWR0113
U 1 1 5FA15E45
P 6050 1900
F 0 "#PWR0113" H 6050 1750 50  0001 C CNN
F 1 "+5V" H 6065 2073 50  0000 C CNN
F 2 "" H 6050 1900 50  0001 C CNN
F 3 "" H 6050 1900 50  0001 C CNN
	1    6050 1900
	0    1    1    0   
$EndComp
Wire Wire Line
	6350 1900 6350 2050
Wire Wire Line
	5950 1900 5950 2050
Wire Wire Line
	5950 2050 6350 2050
Connection ~ 6350 2050
Wire Wire Line
	6350 2050 6350 2150
$EndSCHEMATC
