G04 #@! TF.GenerationSoftware,KiCad,Pcbnew,5.1.9+dfsg1-1~bpo10+1*
G04 #@! TF.CreationDate,2021-05-12T11:57:27+02:00*
G04 #@! TF.ProjectId,ESP32Cam_PIR,45535033-3243-4616-9d5f-5049522e6b69,rev?*
G04 #@! TF.SameCoordinates,Original*
G04 #@! TF.FileFunction,Profile,NP*
%FSLAX46Y46*%
G04 Gerber Fmt 4.6, Leading zero omitted, Abs format (unit mm)*
G04 Created by KiCad (PCBNEW 5.1.9+dfsg1-1~bpo10+1) date 2021-05-12 11:57:27*
%MOMM*%
%LPD*%
G01*
G04 APERTURE LIST*
G04 #@! TA.AperFunction,Profile*
%ADD10C,0.200000*%
G04 #@! TD*
G04 APERTURE END LIST*
D10*
X132080000Y-137170000D02*
X132080000Y-77447140D01*
X180340000Y-137167620D02*
X132080000Y-137167620D01*
X180340000Y-77447140D02*
X180340000Y-137167620D01*
X132080000Y-77447140D02*
X180340000Y-77447140D01*
M02*
